^C:\USERS\KGITLITZ\DOCUMENTS\VISUAL STUDIO 2015\PROJECTS\CPPRESTCLIENT\CPPRESTCLIENT\SOURCE.CPP
C:\USERS\KGITLITZ\DOCUMENTS\VISUAL STUDIO 2015\PROJECTS\CPPRESTCLIENT\CPPRESTCLIENT\DEBUG\VC140.PDB
C:\USERS\KGITLITZ\DOCUMENTS\VISUAL STUDIO 2015\PROJECTS\CPPRESTCLIENT\CPPRESTCLIENT\DEBUG\VC140.IDB
C:\USERS\KGITLITZ\DOCUMENTS\VISUAL STUDIO 2015\PROJECTS\CPPRESTCLIENT\CPPRESTCLIENT\DEBUG\SOURCE.OBJ
