[  
    {  
        "title_id":"BU1032",
        "title":"The Busy Executive's Database Guide",
        "type":"business",
        "pub_id":"1389",
        "price":"19.99",
        "advance":"5000.00",
        "royalty":"10",
        "ytd_sales":"4095",
        "notes":"An overview of available database systems with emphasis on common business applications. Illustrated."
    },
    {  
        "title_id":"BU1111",
        "title":"Cooking with Computers: Surreptitious Balance Sheets",
        "type":"business",
        "pub_id":"1389",
        "price":"11.95",
        "advance":"5000.00",
        "royalty":"10",
        "ytd_sales":"3876",
        "notes":"Helpful hints on how to use your electronic resources to the best advantage."
    },
    {  
        "title_id":"BU2075",
        "title":"You Can Combat Computer Stress!",
        "type":"business",
        "pub_id":"0736",
        "price":"2.99",
        "advance":"10125.00",
        "royalty":"24",
        "ytd_sales":"18722",
        "notes":"The latest medical and psychological techniques for living with the electronic office. Easy-to-understand explanations."
    },
    {  
        "title_id":"BU7832",
        "title":"Straight Talk About Computers",
        "type":"not business",
        "pub_id":"1389",
        "price":"19.99",
        "advance":"5000.00",
        "royalty":"10",
        "ytd_sales":"4095",
        "notes":"Annotated analysis of what computers can do for you: a no-hype guide for the critical user."
    },
    {  
        "title_id":"MC2222",
        "title":"Silicon Valley Gastronomic Treats",
        "type":"mod_cook",
        "pub_id":"0877",
        "price":"19.99",
        "advance":"0.00",
        "royalty":"12",
        "ytd_sales":"2032",
        "notes":"Favorite recipes for quick, easy, and elegant meals."
    },
    {  
        "title_id":"MC3021",
        "title":"The Gourmet Microwave",
        "type":"mod_cook",
        "pub_id":"0877",
        "price":"2.99",
        "advance":"15000.00",
        "royalty":"24",
        "ytd_sales":"22246",
        "notes":"Traditional French gourmet recipes adapted for modern microwave cooking."
    },
    {  
        "title_id":"PC1035",
        "title":"But Is It User Friendly?",
        "type":"popular_comp",
        "pub_id":"1389",
        "price":"22.95",
        "advance":"7000.00",
        "royalty":"16",
        "ytd_sales":"8780",
        "notes":"A survey of software for the naive user, focusing on the 'friendliness' of each."
    },
    {  
        "title_id":"PC8888",
        "title":"Secrets of Silicon Valley",
        "type":"popular_comp",
        "pub_id":"1389",
        "price":"20.00",
        "advance":"8000.00",
        "royalty":"10",
        "ytd_sales":"4095",
        "notes":"Muckraking reporting on the world's largest computer hardware and software manufacturers."
    },
    {  
        "title_id":"PS1234",
        "title":"helo",
        "type":"Business",
        "pub_id":"1489",
        "price":"14.99",
        "advance":"5000.00",
        "royalty":"100",
        "ytd_sales":"5000",
        "notes":"hi"
    },
    {  
        "title_id":"PS1372",
        "title":"Computer Phobic AND Non-Phobic Individuals: Behavior Variations",
        "type":"psychology",
        "pub_id":"0877",
        "price":"21.59",
        "advance":"7000.00",
        "royalty":"10",
        "ytd_sales":"375",
        "notes":"A must for the specialist, this book examines the difference between those who hate and fear computers and those who don't."
    },
    {  
        "title_id":"PS2091",
        "title":"Is Anger the Enemy?",
        "type":"psychology",
        "pub_id":"0736",
        "price":"10.95",
        "advance":"2275.00",
        "royalty":"12",
        "ytd_sales":"2045",
        "notes":"Carefully researched study of the effects of strong emotions on the body. Metabolic charts included."
    },
    {  
        "title_id":"PS2106",
        "title":"Life Without Fear",
        "type":"psychology",
        "pub_id":"0736",
        "price":"7.00",
        "advance":"6000.00",
        "royalty":"10",
        "ytd_sales":"111",
        "notes":"New exercise, meditation, and nutritional techniques that can reduce the shock of daily interactions. Popular audience. Sample menus included, exercise video available separately."
    },
    {  
        "title_id":"PS3333",
        "title":"Prolonged Data Deprivation: Four Case Studies",
        "type":"psychology",
        "pub_id":"0736",
        "price":"19.99",
        "advance":"2000.00",
        "royalty":"10",
        "ytd_sales":"4072",
        "notes":"What happens when the data runs dry? Searching evaluations of information-shortage effects."
    },
    {  
        "title_id":"PS4567",
        "title":"Ken",
        "type":"Business",
        "pub_id":"1489",
        "price":"14.99",
        "advance":"5000.00",
        "royalty":"100",
        "ytd_sales":"5000",
        "notes":"hi"
    },
    {  
        "title_id":"PS7777",
        "title":"Emotional Security: A New Algorithm",
        "type":"psychology",
        "pub_id":"0736",
        "price":"7.99",
        "advance":"4000.00",
        "royalty":"10",
        "ytd_sales":"3336",
        "notes":"Protecting yourself and your loved ones from undue emotional stress in the modern world. Use of computer and nutritional aids emphasized."
    },
    {  
        "title_id":"TC3218",
        "title":"Onions, Leeks, and Garlic: Cooking Secrets of the Mediterranean",
        "type":"trad_cook",
        "pub_id":"0877",
        "price":"20.95",
        "advance":"7000.00",
        "royalty":"10",
        "ytd_sales":"375",
        "notes":"Profusely illustrated in color, this makes a wonderful gift book for a cuisine-oriented friend."
    },
    {  
        "title_id":"TC4203",
        "title":"Fifty Years in Buckingham Palace Kitchens",
        "type":"trad_cook",
        "pub_id":"0877",
        "price":"11.95",
        "advance":"4000.00",
        "royalty":"14",
        "ytd_sales":"15096",
        "notes":"More anecdotes from the Queen's favorite cook describing life among English royalty. Recipes, techniques, tender vignettes."
    },
    {  
        "title_id":"TC7777",
        "title":"Sushi, Anyone?",
        "type":"business",
        "pub_id":"0877",
        "price":"14.99",
        "advance":"8000.00",
        "royalty":"10",
        "ytd_sales":"4095",
        "notes":"hi"
    },
    {  
        "title_id":"VV8444",
        "title":"Gradys Book",
        "type":"business",
        "pub_id":"0877",
        "price":"54.55",
        "advance":"5000.00",
        "royalty":"10",
        "ytd_sales":"5451",
        "notes":"This is a book"
    }
]
